Ferrugem - ANOVA, Avaliação das premissas e GLMs
…
Code

# Reescrevendo o dataframe sem a coluna Repetition
AUDPC <- AUDPC[,c(-2)]  
AUDPC

# A tibble: 840 × 4
   genotype incidence severity defoliation
      <dbl>     <dbl>    <dbl>       <dbl>
 1        1     1700      50.8       3212.
 2        1     2203.     28.4       3575 
 3        1     1933.     25.7       2925 
 4        1     6559.    154.        7075 
 5        1     2250      40.8       4538.
 6        2     8333.    167.        4875 
 7        2     7585.    144.        3900 
 8        2     7959.    149.        6238.
 9        2     6292.    168.        5375 
10        2     4347.     95.1       5600 
# ℹ 830 more rows
…
