Ferrugem - Análise Multivariada
…
Rows: 840 Columns: 5
── Column specification ────────────────────────────────────────────────────────
Delimiter: ","
dbl (5): genotype, repetition, incidence, severity, defoliation

ℹ Use `spec()` to retrieve the full column specification for this data.
ℹ Specify the column types or set `show_col_types = FALSE` to quiet this message.

Code

dato <- dato[,c(-2)]
dato

# A tibble: 840 × 4
   genotype incidence severity defoliation
      <dbl>     <dbl>    <dbl>       <dbl>
 1        1     1700      50.8       3212.
 2        1     2203.     28.4       3575 
 3        1     1933.     25.7       2925 
 4        1     6559.    154.        7075 
 5        1     2250      40.8       4538.
 6        2     8333.    167.        4875 
 7        2     7585.    144.        3900 
 8        2     7959.    149.        6238.
 9        2     6292.    168.        5375 
10        2     4347.     95.1       5600 
# ℹ 830 more rows
…
Em seguida, foi criado um novo dataframe para calcular as médias por tratamento utilizando a função mean. Além disso, renomeamos as variáveis para facilitar seu manejo.

Code

# Calcular as médias por tratamento
dato1 <- dato |> 
  group_by(genotype) |> 
  summarise(
    mean_incidence = mean(incidence, na.rm = TRUE),
    mean_severity = mean(severity, na.rm = TRUE),
    mean_defoliation = mean(defoliation, na.rm = TRUE)
  )
dato1

# A tibble: 168 × 4
   genotype mean_incidence mean_severity mean_defoliation
      <dbl>          <dbl>         <dbl>            <dbl>
 1        1          2929.          59.8            4265 
 2        2          6903.         145.             5198.
 3        3          6768.         134.             4200 
 4        4          8209.         161.             6058.
 5        5          8429.         185.             6672.
 6        6          7079.         158.             6938.
 7        7          1924.          11.8            6685 
 8        8          7978.         179.             9138.
 9        9          8946.         181.             7200 
10       10          1859.          24.7            1287.
# ℹ 158 more rows
…
